Sentiment Analysis Pride and Prejudice
…
paj_tokens <- paj_df %>% 
     unnest_tokens(word, text_full)
# Each word has its own row!

Let’s count the words!

paj_wc <- paj_tokens %>% 
     count(word) %>% 
     arrange(-n)
paj_wc

## # A tibble: 6,684 × 2
##    word      n
##    <chr> <int>
##  1 the    4529
##  2 to     4244
##  3 of     3754
##  4 and    3661
##  5 her    2224
##  6 i      2075
##  7 a      2002
##  8 in     1943
##  9 was    1849
## 10 she    1709
## # ℹ 6,674 more rows
…
A word cloud of Pride and Prejudice words (non-numeric)

length(unique(paj_no_numeric$word))

## [1] 6114

#This tells us that pride and prejudice has 6114 unique words i.e. words no on the stopwords list and not numerical in category
# We probably don't want to include them all in a word cloud. Let's filter to only include the top 100 most frequent?
paj_top100 <- paj_no_numeric %>% 
  count(word) %>% 
  arrange(-n) %>% 
  head(100)
paj_top100

## # A tibble: 100 × 2
##    word          n
##    <chr>     <int>
##  1 elizabeth   596
##  2 darcy       373
##  3 bennet      294
##  4 miss        283
##  5 jane        265
##  6 bingley     257
##  7 time        204
##  8 lady        182
##  9 sister      180
## 10 wickham     162
## # ℹ 90 more rows
…
AFINN from Finn Årup Nielsen,

bing from Bing Liu and collaborators, and

nrc from Saif Mohammad and Peter Turney

Let’s explore the sentiment lexicons.

“afinn”: Words ranked from -5 (very negative) to +5 (very
positive)

get_sentiments(lexicon = "afinn")

## # A tibble: 2,477 × 2
##    word       value
##    <chr>      <dbl>
##  1 abandon       -2
##  2 abandoned     -2
##  3 abandons      -2
##  4 abducted      -2
##  5 abduction     -2
##  6 abductions    -2
##  7 abhor         -3
##  8 abhorred      -3
##  9 abhorrent     -3
## 10 abhors        -3
## # ℹ 2,467 more rows

# Let's look at the pretty positive words:
afinn_pos <- get_sentiments("afinn") %>% 
  filter(value %in% c(3,4,5))

afinn_pos

## # A tibble: 222 × 2
##    word         value
##    <chr>        <dbl>
##  1 admire           3
##  2 admired          3
##  3 admires          3
##  4 admiring         3
##  5 adorable         3
##  6 adore            3
##  7 adored           3
##  8 adores           3
##  9 affection        3
## 10 affectionate     3
## # ℹ 212 more rows

bing: binary, “positive” or “negative”

get_sentiments(lexicon = "bing")

## # A tibble: 6,786 × 2
##    word        sentiment
##    <chr>       <chr>    
##  1 2-faces     negative 
##  2 abnormal    negative 
##  3 abolish     negative 
##  4 abominable  negative 
##  5 abominably  negative 
##  6 abominate   negative 
##  7 abomination negative 
##  8 abort       negative 
##  9 aborted     negative 
## 10 aborts      negative 
## # ℹ 6,776 more rows

nrc:https://saifmohammad.com/WebPages/NRC-Emotion-Lexicon.htm
Includes bins for 8 emotions (anger, anticipation, disgust, fear, joy,
sadness, surprise, trust) and positive / negative.

Citation for NRC lexicon: Crowdsourcing a
Word-Emotion Association Lexicon, Saif Mohammad and Peter Turney,
Computational Intelligence, 29 (3), 436-465, 2013.

Now nrc:

get_sentiments(lexicon = "nrc")

## # A tibble: 13,872 × 2
##    word        sentiment
##    <chr>       <chr>    
##  1 abacus      trust    
##  2 abandon     fear     
##  3 abandon     negative 
##  4 abandon     sadness  
##  5 abandoned   anger    
##  6 abandoned   fear     
##  7 abandoned   negative 
##  8 abandoned   sadness  
##  9 abandonment anger    
## 10 abandonment fear     
## # ℹ 13,862 more rows
…
Sentiment analysis with afinn:

First, bind words in paj_stop to afinn
lexicon:

paj_afinn <- paj_stop %>% 
  inner_join(get_sentiments("afinn"))

## Joining with `by = join_by(word)`

paj_afinn

## # A tibble: 6,184 × 2
##    word      value
##    <chr>     <dbl>
##  1 united        1
##  2 united        1
##  3 prepared      1
##  4 dear          2
##  5 cried        -2
##  6 dear          2
##  7 delighted     3
##  8 agreed        1
##  9 dear          2
## 10 fine          2
## # ℹ 6,174 more rows
…
